Decision Trees
…
  Decision Trees

Setup

Today’s data concerns strains of cannabis, which have the types of sativa, indica, or hybrid:

# A tibble: 2,351 × 69
   Strain Type  Rating Effects Flavor Creative Energetic Tingly Euphoric Relaxed
   <chr>  <chr>  <dbl> <chr>   <chr>     <dbl>     <dbl>  <dbl>    <dbl>   <dbl>
 1 100-Og hybr…    4   Creati… Earth…        1         1      1        1       1
 2 98-Wh… hybr…    4.7 Relaxe… Flowe…        1         1      0        0       1
 3 1024   sati…    4.4 Uplift… Spicy…        1         1      0        0       1
 4 13-Da… hybr…    4.2 Tingly… Apric…        1         0      1        0       1
 5 24K-G… hybr…    4.6 Happy,… Citru…        0         0      0        1       1
 6 3-Bea… indi…    0   None    None          0         0      0        0       0
 7 3-Kin… hybr…    4.4 Relaxe… Earth…        0         0      0        1       1
 8 303-Og indi…    4.2 Relaxe… Citru…        0         0      0        1       1
 9 3D-Cbd sati…    4.6 Uplift… Earth…        0         0      0        0       1
10 3X-Cr… indi…    4.4 Relaxe… Earth…        0         0      1        1       1
# ℹ 2,341 more rows
# ℹ 59 more variables: Aroused <dbl>, Happy <dbl>, Uplifted <dbl>,
#   Hungry <dbl>, Talkative <dbl>, Giggly <dbl>, Focused <dbl>, Sleepy <dbl>,
#   Dry <dbl>, Mouth <dbl>, Earthy <dbl>, Sweet <dbl>, Citrus <dbl>,
#   Flowery <dbl>, Violet <dbl>, Diesel <dbl>, `Spicy/Herbal` <dbl>,
#   Sage <dbl>, Woody <dbl>, Apricot <dbl>, Grapefruit <dbl>, Orange <dbl>,
#   Pungent <dbl>, Grape <dbl>, Pine <dbl>, Skunk <dbl>, Berry <dbl>, …
…
→ A | warning: variables are collinear
→ B | warning: no non-missing arguments to min; returning Inf
→ C | error:   variables 15 16 appear to be constant within groups

What happened now?

Problem 1: There are still 65 predictors, i.e., 65 dimensions!

Problem 2: Some of these predictors contain duplicate information.

dplyr::select(cann_clean, Dry, Mouth) %>%
  arrange(desc(Dry))

# A tibble: 2,305 × 2
     Dry Mouth
   <dbl> <dbl>
 1     1     1
 2     0     0
 3     0     0
 4     0     0
 5     0     0
 6     0     0
 7     0     0
 8     0     0
 9     0     0
10     0     0
# ℹ 2,295 more rows
…
